Lecture 9：固定効果モデル
…
次に、T=2,3,5,10,20,40 のそれぞれについて、同じシミュレーションを何回も繰り返す。

T_grid <- c(2, 3, 5, 10, 20, 40)
R <- 300

sim_results <- map_dfr(T_grid, function(Tt) {
  map_dfr(1:R, function(r) {
    run_one_panel_sim(Tt = Tt, N = N, beta_true = beta_true)
  })
})

sim_results

# A tibble: 3,600 × 4
       T model            estimate    se
   <dbl> <chr>               <dbl> <dbl>
 1     2 Fixed effects       0.723 0.296
 2     2 First difference    0.723 0.296
 3     2 Fixed effects       0.806 0.262
 4     2 First difference    0.806 0.262
 5     2 Fixed effects       0.653 0.205
 6     2 First difference    0.653 0.205
 7     2 Fixed effects       1.13  0.394
 8     2 First difference    1.13  0.394
 9     2 Fixed effects       0.813 0.360
10     2 First difference    0.813 0.360
# ℹ 3,590 more rows
…
