Lecture 8：固定効果モデル
…
次に、T=2,3,5,10,20,40 のそれぞれについて、同じシミュレーションを何回も繰り返す。

T_grid <- c(2, 3, 5, 10, 20, 40)
R <- 300

sim_results <- map_dfr(T_grid, function(Tt) {
  map_dfr(1:R, function(r) {
    run_one_fe_sim(Tt = Tt, N = N, beta_true = beta_true)
  })
})

sim_results

# A tibble: 1,800 × 3
       T estimate    se
   <dbl>    <dbl> <dbl>
 1     2    0.723 0.296
 2     2    0.806 0.262
 3     2    0.653 0.205
 4     2    1.13  0.394
 5     2    0.813 0.360
 6     2    0.707 0.379
 7     2    1.03  0.231
 8     2    1.08  0.182
 9     2    0.557 0.242
10     2    1.22  0.202
# ℹ 1,790 more rows
…
